('/Users/azatamanzol/PycharmProjects/PW8/dist/main',
 True,
 False,
 False,
 None,
 None,
 False,
 False,
 None,
 True,
 True,
 False,
 'arm64',
 None,
 None,
 '/Users/azatamanzol/PycharmProjects/PW8/build/main/main.pkg',
 [('PYZ-00.pyz',
   '/Users/azatamanzol/PycharmProjects/PW8/build/main/PYZ-00.pyz',
   'PYZ'),
  ('struct',
   '/Users/azatamanzol/PycharmProjects/PW8/build/main/localpycs/struct.pyc',
   'PYMODULE'),
  ('pyimod01_archive',
   '/Users/azatamanzol/PycharmProjects/PW8/build/main/localpycs/pyimod01_archive.pyc',
   'PYMODULE'),
  ('pyimod02_importers',
   '/Users/azatamanzol/PycharmProjects/PW8/build/main/localpycs/pyimod02_importers.pyc',
   'PYMODULE'),
  ('pyimod03_ctypes',
   '/Users/azatamanzol/PycharmProjects/PW8/build/main/localpycs/pyimod03_ctypes.pyc',
   'PYMODULE'),
  ('pyiboot01_bootstrap',
   '/Users/azatamanzol/PycharmProjects/PW8/venv/lib/python3.8/site-packages/PyInstaller/loader/pyiboot01_bootstrap.py',
   'PYSOURCE'),
  ('main', '/Users/azatamanzol/PycharmProjects/PW8/main.py', 'PYSOURCE'),
  ('Python3',
   '/Library/Developer/CommandLineTools/Library/Frameworks/Python3.framework/Versions/3.8/Resources/Python.app/Contents/MacOS/../../../../Python3',
   'BINARY'),
  ('lib-dynload/zlib.cpython-38-darwin.so',
   '/Library/Developer/CommandLineTools/Library/Frameworks/Python3.framework/Versions/3.8/lib/python3.8/lib-dynload/zlib.cpython-38-darwin.so',
   'EXTENSION'),
  ('lib-dynload/binascii.cpython-38-darwin.so',
   '/Library/Developer/CommandLineTools/Library/Frameworks/Python3.framework/Versions/3.8/lib/python3.8/lib-dynload/binascii.cpython-38-darwin.so',
   'EXTENSION'),
  ('lib-dynload/_multibytecodec.cpython-38-darwin.so',
   '/Library/Developer/CommandLineTools/Library/Frameworks/Python3.framework/Versions/3.8/lib/python3.8/lib-dynload/_multibytecodec.cpython-38-darwin.so',
   'EXTENSION'),
  ('lib-dynload/_codecs_jp.cpython-38-darwin.so',
   '/Library/Developer/CommandLineTools/Library/Frameworks/Python3.framework/Versions/3.8/lib/python3.8/lib-dynload/_codecs_jp.cpython-38-darwin.so',
   'EXTENSION'),
  ('lib-dynload/_struct.cpython-38-darwin.so',
   '/Library/Developer/CommandLineTools/Library/Frameworks/Python3.framework/Versions/3.8/lib/python3.8/lib-dynload/_struct.cpython-38-darwin.so',
   'EXTENSION'),
  ('lib-dynload/_codecs_kr.cpython-38-darwin.so',
   '/Library/Developer/CommandLineTools/Library/Frameworks/Python3.framework/Versions/3.8/lib/python3.8/lib-dynload/_codecs_kr.cpython-38-darwin.so',
   'EXTENSION'),
  ('lib-dynload/_codecs_iso2022.cpython-38-darwin.so',
   '/Library/Developer/CommandLineTools/Library/Frameworks/Python3.framework/Versions/3.8/lib/python3.8/lib-dynload/_codecs_iso2022.cpython-38-darwin.so',
   'EXTENSION'),
  ('lib-dynload/unicodedata.cpython-38-darwin.so',
   '/Library/Developer/CommandLineTools/Library/Frameworks/Python3.framework/Versions/3.8/lib/python3.8/lib-dynload/unicodedata.cpython-38-darwin.so',
   'EXTENSION'),
  ('lib-dynload/_codecs_cn.cpython-38-darwin.so',
   '/Library/Developer/CommandLineTools/Library/Frameworks/Python3.framework/Versions/3.8/lib/python3.8/lib-dynload/_codecs_cn.cpython-38-darwin.so',
   'EXTENSION'),
  ('lib-dynload/_codecs_tw.cpython-38-darwin.so',
   '/Library/Developer/CommandLineTools/Library/Frameworks/Python3.framework/Versions/3.8/lib/python3.8/lib-dynload/_codecs_tw.cpython-38-darwin.so',
   'EXTENSION'),
  ('lib-dynload/_bz2.cpython-38-darwin.so',
   '/Library/Developer/CommandLineTools/Library/Frameworks/Python3.framework/Versions/3.8/lib/python3.8/lib-dynload/_bz2.cpython-38-darwin.so',
   'EXTENSION'),
  ('lib-dynload/_datetime.cpython-38-darwin.so',
   '/Library/Developer/CommandLineTools/Library/Frameworks/Python3.framework/Versions/3.8/lib/python3.8/lib-dynload/_datetime.cpython-38-darwin.so',
   'EXTENSION'),
  ('lib-dynload/math.cpython-38-darwin.so',
   '/Library/Developer/CommandLineTools/Library/Frameworks/Python3.framework/Versions/3.8/lib/python3.8/lib-dynload/math.cpython-38-darwin.so',
   'EXTENSION'),
  ('lib-dynload/select.cpython-38-darwin.so',
   '/Library/Developer/CommandLineTools/Library/Frameworks/Python3.framework/Versions/3.8/lib/python3.8/lib-dynload/select.cpython-38-darwin.so',
   'EXTENSION'),
  ('lib-dynload/_socket.cpython-38-darwin.so',
   '/Library/Developer/CommandLineTools/Library/Frameworks/Python3.framework/Versions/3.8/lib/python3.8/lib-dynload/_socket.cpython-38-darwin.so',
   'EXTENSION'),
  ('lib-dynload/_random.cpython-38-darwin.so',
   '/Library/Developer/CommandLineTools/Library/Frameworks/Python3.framework/Versions/3.8/lib/python3.8/lib-dynload/_random.cpython-38-darwin.so',
   'EXTENSION'),
  ('lib-dynload/_pickle.cpython-38-darwin.so',
   '/Library/Developer/CommandLineTools/Library/Frameworks/Python3.framework/Versions/3.8/lib/python3.8/lib-dynload/_pickle.cpython-38-darwin.so',
   'EXTENSION'),
  ('lib-dynload/_hashlib.cpython-38-darwin.so',
   '/Library/Developer/CommandLineTools/Library/Frameworks/Python3.framework/Versions/3.8/lib/python3.8/lib-dynload/_hashlib.cpython-38-darwin.so',
   'EXTENSION'),
  ('lib-dynload/_sha3.cpython-38-darwin.so',
   '/Library/Developer/CommandLineTools/Library/Frameworks/Python3.framework/Versions/3.8/lib/python3.8/lib-dynload/_sha3.cpython-38-darwin.so',
   'EXTENSION'),
  ('lib-dynload/_blake2.cpython-38-darwin.so',
   '/Library/Developer/CommandLineTools/Library/Frameworks/Python3.framework/Versions/3.8/lib/python3.8/lib-dynload/_blake2.cpython-38-darwin.so',
   'EXTENSION'),
  ('lib-dynload/_sha256.cpython-38-darwin.so',
   '/Library/Developer/CommandLineTools/Library/Frameworks/Python3.framework/Versions/3.8/lib/python3.8/lib-dynload/_sha256.cpython-38-darwin.so',
   'EXTENSION'),
  ('lib-dynload/_md5.cpython-38-darwin.so',
   '/Library/Developer/CommandLineTools/Library/Frameworks/Python3.framework/Versions/3.8/lib/python3.8/lib-dynload/_md5.cpython-38-darwin.so',
   'EXTENSION'),
  ('lib-dynload/_sha1.cpython-38-darwin.so',
   '/Library/Developer/CommandLineTools/Library/Frameworks/Python3.framework/Versions/3.8/lib/python3.8/lib-dynload/_sha1.cpython-38-darwin.so',
   'EXTENSION'),
  ('lib-dynload/_sha512.cpython-38-darwin.so',
   '/Library/Developer/CommandLineTools/Library/Frameworks/Python3.framework/Versions/3.8/lib/python3.8/lib-dynload/_sha512.cpython-38-darwin.so',
   'EXTENSION'),
  ('lib-dynload/_bisect.cpython-38-darwin.so',
   '/Library/Developer/CommandLineTools/Library/Frameworks/Python3.framework/Versions/3.8/lib/python3.8/lib-dynload/_bisect.cpython-38-darwin.so',
   'EXTENSION'),
  ('lib-dynload/resource.cpython-38-darwin.so',
   '/Library/Developer/CommandLineTools/Library/Frameworks/Python3.framework/Versions/3.8/lib/python3.8/lib-dynload/resource.cpython-38-darwin.so',
   'EXTENSION'),
  ('lib-dynload/grp.cpython-38-darwin.so',
   '/Library/Developer/CommandLineTools/Library/Frameworks/Python3.framework/Versions/3.8/lib/python3.8/lib-dynload/grp.cpython-38-darwin.so',
   'EXTENSION'),
  ('lib-dynload/_lzma.cpython-38-darwin.so',
   '/Library/Developer/CommandLineTools/Library/Frameworks/Python3.framework/Versions/3.8/lib/python3.8/lib-dynload/_lzma.cpython-38-darwin.so',
   'EXTENSION'),
  ('lib-dynload/_codecs_hk.cpython-38-darwin.so',
   '/Library/Developer/CommandLineTools/Library/Frameworks/Python3.framework/Versions/3.8/lib/python3.8/lib-dynload/_codecs_hk.cpython-38-darwin.so',
   'EXTENSION'),
  ('lib-dynload/_posixsubprocess.cpython-38-darwin.so',
   '/Library/Developer/CommandLineTools/Library/Frameworks/Python3.framework/Versions/3.8/lib/python3.8/lib-dynload/_posixsubprocess.cpython-38-darwin.so',
   'EXTENSION'),
  ('lib-dynload/_scproxy.cpython-38-darwin.so',
   '/Library/Developer/CommandLineTools/Library/Frameworks/Python3.framework/Versions/3.8/lib/python3.8/lib-dynload/_scproxy.cpython-38-darwin.so',
   'EXTENSION'),
  ('lib-dynload/termios.cpython-38-darwin.so',
   '/Library/Developer/CommandLineTools/Library/Frameworks/Python3.framework/Versions/3.8/lib/python3.8/lib-dynload/termios.cpython-38-darwin.so',
   'EXTENSION'),
  ('lib-dynload/_ssl.cpython-38-darwin.so',
   '/Library/Developer/CommandLineTools/Library/Frameworks/Python3.framework/Versions/3.8/lib/python3.8/lib-dynload/_ssl.cpython-38-darwin.so',
   'EXTENSION'),
  ('lib-dynload/_heapq.cpython-38-darwin.so',
   '/Library/Developer/CommandLineTools/Library/Frameworks/Python3.framework/Versions/3.8/lib/python3.8/lib-dynload/_heapq.cpython-38-darwin.so',
   'EXTENSION'),
  ('lib-dynload/pyexpat.cpython-38-darwin.so',
   '/Library/Developer/CommandLineTools/Library/Frameworks/Python3.framework/Versions/3.8/lib/python3.8/lib-dynload/pyexpat.cpython-38-darwin.so',
   'EXTENSION'),
  ('lib-dynload/_elementtree.cpython-38-darwin.so',
   '/Library/Developer/CommandLineTools/Library/Frameworks/Python3.framework/Versions/3.8/lib/python3.8/lib-dynload/_elementtree.cpython-38-darwin.so',
   'EXTENSION'),
  ('lib-dynload/_csv.cpython-38-darwin.so',
   '/Library/Developer/CommandLineTools/Library/Frameworks/Python3.framework/Versions/3.8/lib/python3.8/lib-dynload/_csv.cpython-38-darwin.so',
   'EXTENSION'),
  ('lib-dynload/_json.cpython-38-darwin.so',
   '/Library/Developer/CommandLineTools/Library/Frameworks/Python3.framework/Versions/3.8/lib/python3.8/lib-dynload/_json.cpython-38-darwin.so',
   'EXTENSION'),
  ('base_library.zip',
   '/Users/azatamanzol/PycharmProjects/PW8/build/main/base_library.zip',
   'DATA')],
 [],
 False,
 False,
 1671051306,
 [('run',
   '/Users/azatamanzol/PycharmProjects/PW8/venv/lib/python3.8/site-packages/PyInstaller/bootloader/Darwin-64bit/run',
   'EXECUTABLE')])
