('/Users/azatamanzol/PycharmProjects/PW8/build/main/PYZ-00.pyz',
 [('quopri',
   '/Library/Developer/CommandLineTools/Library/Frameworks/Python3.framework/Versions/3.8/lib/python3.8/quopri.py',
   'PYMODULE'),
  ('getopt',
   '/Library/Developer/CommandLineTools/Library/Frameworks/Python3.framework/Versions/3.8/lib/python3.8/getopt.py',
   'PYMODULE'),
  ('gettext',
   '/Library/Developer/CommandLineTools/Library/Frameworks/Python3.framework/Versions/3.8/lib/python3.8/gettext.py',
   'PYMODULE'),
  ('copy',
   '/Library/Developer/CommandLineTools/Library/Frameworks/Python3.framework/Versions/3.8/lib/python3.8/copy.py',
   'PYMODULE'),
  ('struct',
   '/Library/Developer/CommandLineTools/Library/Frameworks/Python3.framework/Versions/3.8/lib/python3.8/struct.py',
   'PYMODULE'),
  ('stringprep',
   '/Library/Developer/CommandLineTools/Library/Frameworks/Python3.framework/Versions/3.8/lib/python3.8/stringprep.py',
   'PYMODULE'),
  ('bz2',
   '/Library/Developer/CommandLineTools/Library/Frameworks/Python3.framework/Versions/3.8/lib/python3.8/bz2.py',
   'PYMODULE'),
  ('threading',
   '/Library/Developer/CommandLineTools/Library/Frameworks/Python3.framework/Versions/3.8/lib/python3.8/threading.py',
   'PYMODULE'),
  ('_threading_local',
   '/Library/Developer/CommandLineTools/Library/Frameworks/Python3.framework/Versions/3.8/lib/python3.8/_threading_local.py',
   'PYMODULE'),
  ('contextlib',
   '/Library/Developer/CommandLineTools/Library/Frameworks/Python3.framework/Versions/3.8/lib/python3.8/contextlib.py',
   'PYMODULE'),
  ('_strptime',
   '/Library/Developer/CommandLineTools/Library/Frameworks/Python3.framework/Versions/3.8/lib/python3.8/_strptime.py',
   'PYMODULE'),
  ('datetime',
   '/Library/Developer/CommandLineTools/Library/Frameworks/Python3.framework/Versions/3.8/lib/python3.8/datetime.py',
   'PYMODULE'),
  ('calendar',
   '/Library/Developer/CommandLineTools/Library/Frameworks/Python3.framework/Versions/3.8/lib/python3.8/calendar.py',
   'PYMODULE'),
  ('argparse',
   '/Library/Developer/CommandLineTools/Library/Frameworks/Python3.framework/Versions/3.8/lib/python3.8/argparse.py',
   'PYMODULE'),
  ('textwrap',
   '/Library/Developer/CommandLineTools/Library/Frameworks/Python3.framework/Versions/3.8/lib/python3.8/textwrap.py',
   'PYMODULE'),
  ('shutil',
   '/Library/Developer/CommandLineTools/Library/Frameworks/Python3.framework/Versions/3.8/lib/python3.8/shutil.py',
   'PYMODULE'),
  ('zipfile',
   '/Library/Developer/CommandLineTools/Library/Frameworks/Python3.framework/Versions/3.8/lib/python3.8/zipfile.py',
   'PYMODULE'),
  ('py_compile',
   '/Library/Developer/CommandLineTools/Library/Frameworks/Python3.framework/Versions/3.8/lib/python3.8/py_compile.py',
   'PYMODULE'),
  ('importlib.machinery',
   '/Library/Developer/CommandLineTools/Library/Frameworks/Python3.framework/Versions/3.8/lib/python3.8/importlib/machinery.py',
   'PYMODULE'),
  ('importlib',
   '/Library/Developer/CommandLineTools/Library/Frameworks/Python3.framework/Versions/3.8/lib/python3.8/importlib/__init__.py',
   'PYMODULE'),
  ('importlib._bootstrap',
   '/Library/Developer/CommandLineTools/Library/Frameworks/Python3.framework/Versions/3.8/lib/python3.8/importlib/_bootstrap.py',
   'PYMODULE'),
  ('importlib._bootstrap_external',
   '/Library/Developer/CommandLineTools/Library/Frameworks/Python3.framework/Versions/3.8/lib/python3.8/importlib/_bootstrap_external.py',
   'PYMODULE'),
  ('importlib.metadata',
   '/Library/Developer/CommandLineTools/Library/Frameworks/Python3.framework/Versions/3.8/lib/python3.8/importlib/metadata.py',
   'PYMODULE'),
  ('importlib.abc',
   '/Library/Developer/CommandLineTools/Library/Frameworks/Python3.framework/Versions/3.8/lib/python3.8/importlib/abc.py',
   'PYMODULE'),
  ('configparser',
   '/Library/Developer/CommandLineTools/Library/Frameworks/Python3.framework/Versions/3.8/lib/python3.8/configparser.py',
   'PYMODULE'),
  ('email',
   '/Library/Developer/CommandLineTools/Library/Frameworks/Python3.framework/Versions/3.8/lib/python3.8/email/__init__.py',
   'PYMODULE'),
  ('email.parser',
   '/Library/Developer/CommandLineTools/Library/Frameworks/Python3.framework/Versions/3.8/lib/python3.8/email/parser.py',
   'PYMODULE'),
  ('email._policybase',
   '/Library/Developer/CommandLineTools/Library/Frameworks/Python3.framework/Versions/3.8/lib/python3.8/email/_policybase.py',
   'PYMODULE'),
  ('email.utils',
   '/Library/Developer/CommandLineTools/Library/Frameworks/Python3.framework/Versions/3.8/lib/python3.8/email/utils.py',
   'PYMODULE'),
  ('email._parseaddr',
   '/Library/Developer/CommandLineTools/Library/Frameworks/Python3.framework/Versions/3.8/lib/python3.8/email/_parseaddr.py',
   'PYMODULE'),
  ('socket',
   '/Library/Developer/CommandLineTools/Library/Frameworks/Python3.framework/Versions/3.8/lib/python3.8/socket.py',
   'PYMODULE'),
  ('selectors',
   '/Library/Developer/CommandLineTools/Library/Frameworks/Python3.framework/Versions/3.8/lib/python3.8/selectors.py',
   'PYMODULE'),
  ('random',
   '/Library/Developer/CommandLineTools/Library/Frameworks/Python3.framework/Versions/3.8/lib/python3.8/random.py',
   'PYMODULE'),
  ('hashlib',
   '/Library/Developer/CommandLineTools/Library/Frameworks/Python3.framework/Versions/3.8/lib/python3.8/hashlib.py',
   'PYMODULE'),
  ('logging',
   '/Library/Developer/CommandLineTools/Library/Frameworks/Python3.framework/Versions/3.8/lib/python3.8/logging/__init__.py',
   'PYMODULE'),
  ('pickle',
   '/Library/Developer/CommandLineTools/Library/Frameworks/Python3.framework/Versions/3.8/lib/python3.8/pickle.py',
   'PYMODULE'),
  ('pprint',
   '/Library/Developer/CommandLineTools/Library/Frameworks/Python3.framework/Versions/3.8/lib/python3.8/pprint.py',
   'PYMODULE'),
  ('_compat_pickle',
   '/Library/Developer/CommandLineTools/Library/Frameworks/Python3.framework/Versions/3.8/lib/python3.8/_compat_pickle.py',
   'PYMODULE'),
  ('string',
   '/Library/Developer/CommandLineTools/Library/Frameworks/Python3.framework/Versions/3.8/lib/python3.8/string.py',
   'PYMODULE'),
  ('bisect',
   '/Library/Developer/CommandLineTools/Library/Frameworks/Python3.framework/Versions/3.8/lib/python3.8/bisect.py',
   'PYMODULE'),
  ('email.feedparser',
   '/Library/Developer/CommandLineTools/Library/Frameworks/Python3.framework/Versions/3.8/lib/python3.8/email/feedparser.py',
   'PYMODULE'),
  ('email.message',
   '/Library/Developer/CommandLineTools/Library/Frameworks/Python3.framework/Versions/3.8/lib/python3.8/email/message.py',
   'PYMODULE'),
  ('email.policy',
   '/Library/Developer/CommandLineTools/Library/Frameworks/Python3.framework/Versions/3.8/lib/python3.8/email/policy.py',
   'PYMODULE'),
  ('email.contentmanager',
   '/Library/Developer/CommandLineTools/Library/Frameworks/Python3.framework/Versions/3.8/lib/python3.8/email/contentmanager.py',
   'PYMODULE'),
  ('email.quoprimime',
   '/Library/Developer/CommandLineTools/Library/Frameworks/Python3.framework/Versions/3.8/lib/python3.8/email/quoprimime.py',
   'PYMODULE'),
  ('email.headerregistry',
   '/Library/Developer/CommandLineTools/Library/Frameworks/Python3.framework/Versions/3.8/lib/python3.8/email/headerregistry.py',
   'PYMODULE'),
  ('email.iterators',
   '/Library/Developer/CommandLineTools/Library/Frameworks/Python3.framework/Versions/3.8/lib/python3.8/email/iterators.py',
   'PYMODULE'),
  ('email.generator',
   '/Library/Developer/CommandLineTools/Library/Frameworks/Python3.framework/Versions/3.8/lib/python3.8/email/generator.py',
   'PYMODULE'),
  ('email._encoded_words',
   '/Library/Developer/CommandLineTools/Library/Frameworks/Python3.framework/Versions/3.8/lib/python3.8/email/_encoded_words.py',
   'PYMODULE'),
  ('base64',
   '/Library/Developer/CommandLineTools/Library/Frameworks/Python3.framework/Versions/3.8/lib/python3.8/base64.py',
   'PYMODULE'),
  ('uu',
   '/Library/Developer/CommandLineTools/Library/Frameworks/Python3.framework/Versions/3.8/lib/python3.8/uu.py',
   'PYMODULE'),
  ('optparse',
   '/Library/Developer/CommandLineTools/Library/Frameworks/Python3.framework/Versions/3.8/lib/python3.8/optparse.py',
   'PYMODULE'),
  ('email._header_value_parser',
   '/Library/Developer/CommandLineTools/Library/Frameworks/Python3.framework/Versions/3.8/lib/python3.8/email/_header_value_parser.py',
   'PYMODULE'),
  ('email.header',
   '/Library/Developer/CommandLineTools/Library/Frameworks/Python3.framework/Versions/3.8/lib/python3.8/email/header.py',
   'PYMODULE'),
  ('email.base64mime',
   '/Library/Developer/CommandLineTools/Library/Frameworks/Python3.framework/Versions/3.8/lib/python3.8/email/base64mime.py',
   'PYMODULE'),
  ('email.charset',
   '/Library/Developer/CommandLineTools/Library/Frameworks/Python3.framework/Versions/3.8/lib/python3.8/email/charset.py',
   'PYMODULE'),
  ('email.encoders',
   '/Library/Developer/CommandLineTools/Library/Frameworks/Python3.framework/Versions/3.8/lib/python3.8/email/encoders.py',
   'PYMODULE'),
  ('email.errors',
   '/Library/Developer/CommandLineTools/Library/Frameworks/Python3.framework/Versions/3.8/lib/python3.8/email/errors.py',
   'PYMODULE'),
  ('importlib.util',
   '/Library/Developer/CommandLineTools/Library/Frameworks/Python3.framework/Versions/3.8/lib/python3.8/importlib/util.py',
   'PYMODULE'),
  ('tarfile',
   '/Library/Developer/CommandLineTools/Library/Frameworks/Python3.framework/Versions/3.8/lib/python3.8/tarfile.py',
   'PYMODULE'),
  ('gzip',
   '/Library/Developer/CommandLineTools/Library/Frameworks/Python3.framework/Versions/3.8/lib/python3.8/gzip.py',
   'PYMODULE'),
  ('lzma',
   '/Library/Developer/CommandLineTools/Library/Frameworks/Python3.framework/Versions/3.8/lib/python3.8/lzma.py',
   'PYMODULE'),
  ('_compression',
   '/Library/Developer/CommandLineTools/Library/Frameworks/Python3.framework/Versions/3.8/lib/python3.8/_compression.py',
   'PYMODULE'),
  ('_py_abc',
   '/Library/Developer/CommandLineTools/Library/Frameworks/Python3.framework/Versions/3.8/lib/python3.8/_py_abc.py',
   'PYMODULE'),
  ('subprocess',
   '/Library/Developer/CommandLineTools/Library/Frameworks/Python3.framework/Versions/3.8/lib/python3.8/subprocess.py',
   'PYMODULE'),
  ('signal',
   '/Library/Developer/CommandLineTools/Library/Frameworks/Python3.framework/Versions/3.8/lib/python3.8/signal.py',
   'PYMODULE'),
  ('tracemalloc',
   '/Library/Developer/CommandLineTools/Library/Frameworks/Python3.framework/Versions/3.8/lib/python3.8/tracemalloc.py',
   'PYMODULE'),
  ('typing',
   '/Library/Developer/CommandLineTools/Library/Frameworks/Python3.framework/Versions/3.8/lib/python3.8/typing.py',
   'PYMODULE'),
  ('tempfile',
   '/Library/Developer/CommandLineTools/Library/Frameworks/Python3.framework/Versions/3.8/lib/python3.8/tempfile.py',
   'PYMODULE'),
  ('getpass',
   '/Library/Developer/CommandLineTools/Library/Frameworks/Python3.framework/Versions/3.8/lib/python3.8/getpass.py',
   'PYMODULE'),
  ('nturl2path',
   '/Library/Developer/CommandLineTools/Library/Frameworks/Python3.framework/Versions/3.8/lib/python3.8/nturl2path.py',
   'PYMODULE'),
  ('ftplib',
   '/Library/Developer/CommandLineTools/Library/Frameworks/Python3.framework/Versions/3.8/lib/python3.8/ftplib.py',
   'PYMODULE'),
  ('netrc',
   '/Library/Developer/CommandLineTools/Library/Frameworks/Python3.framework/Versions/3.8/lib/python3.8/netrc.py',
   'PYMODULE'),
  ('shlex',
   '/Library/Developer/CommandLineTools/Library/Frameworks/Python3.framework/Versions/3.8/lib/python3.8/shlex.py',
   'PYMODULE'),
  ('mimetypes',
   '/Library/Developer/CommandLineTools/Library/Frameworks/Python3.framework/Versions/3.8/lib/python3.8/mimetypes.py',
   'PYMODULE'),
  ('http.cookiejar',
   '/Library/Developer/CommandLineTools/Library/Frameworks/Python3.framework/Versions/3.8/lib/python3.8/http/cookiejar.py',
   'PYMODULE'),
  ('http',
   '/Library/Developer/CommandLineTools/Library/Frameworks/Python3.framework/Versions/3.8/lib/python3.8/http/__init__.py',
   'PYMODULE'),
  ('ssl',
   '/Library/Developer/CommandLineTools/Library/Frameworks/Python3.framework/Versions/3.8/lib/python3.8/ssl.py',
   'PYMODULE'),
  ('http.client',
   '/Library/Developer/CommandLineTools/Library/Frameworks/Python3.framework/Versions/3.8/lib/python3.8/http/client.py',
   'PYMODULE'),
  ('dicttoxml',
   '/Users/azatamanzol/PycharmProjects/PW8/venv/lib/python3.8/site-packages/dicttoxml.py',
   'PYMODULE'),
  ('xml.dom.minidom',
   '/Library/Developer/CommandLineTools/Library/Frameworks/Python3.framework/Versions/3.8/lib/python3.8/xml/dom/minidom.py',
   'PYMODULE'),
  ('xml.dom.pulldom',
   '/Library/Developer/CommandLineTools/Library/Frameworks/Python3.framework/Versions/3.8/lib/python3.8/xml/dom/pulldom.py',
   'PYMODULE'),
  ('xml.sax.handler',
   '/Library/Developer/CommandLineTools/Library/Frameworks/Python3.framework/Versions/3.8/lib/python3.8/xml/sax/handler.py',
   'PYMODULE'),
  ('xml.sax',
   '/Library/Developer/CommandLineTools/Library/Frameworks/Python3.framework/Versions/3.8/lib/python3.8/xml/sax/__init__.py',
   'PYMODULE'),
  ('xml.sax.expatreader',
   '/Library/Developer/CommandLineTools/Library/Frameworks/Python3.framework/Versions/3.8/lib/python3.8/xml/sax/expatreader.py',
   'PYMODULE'),
  ('xml.parsers.expat',
   '/Library/Developer/CommandLineTools/Library/Frameworks/Python3.framework/Versions/3.8/lib/python3.8/xml/parsers/expat.py',
   'PYMODULE'),
  ('xml.parsers',
   '/Library/Developer/CommandLineTools/Library/Frameworks/Python3.framework/Versions/3.8/lib/python3.8/xml/parsers/__init__.py',
   'PYMODULE'),
  ('xml',
   '/Library/Developer/CommandLineTools/Library/Frameworks/Python3.framework/Versions/3.8/lib/python3.8/xml/__init__.py',
   'PYMODULE'),
  ('xml.sax._exceptions',
   '/Library/Developer/CommandLineTools/Library/Frameworks/Python3.framework/Versions/3.8/lib/python3.8/xml/sax/_exceptions.py',
   'PYMODULE'),
  ('xml.sax.saxutils',
   '/Library/Developer/CommandLineTools/Library/Frameworks/Python3.framework/Versions/3.8/lib/python3.8/xml/sax/saxutils.py',
   'PYMODULE'),
  ('xml.sax.xmlreader',
   '/Library/Developer/CommandLineTools/Library/Frameworks/Python3.framework/Versions/3.8/lib/python3.8/xml/sax/xmlreader.py',
   'PYMODULE'),
  ('xml.dom.expatbuilder',
   '/Library/Developer/CommandLineTools/Library/Frameworks/Python3.framework/Versions/3.8/lib/python3.8/xml/dom/expatbuilder.py',
   'PYMODULE'),
  ('xml.dom.NodeFilter',
   '/Library/Developer/CommandLineTools/Library/Frameworks/Python3.framework/Versions/3.8/lib/python3.8/xml/dom/NodeFilter.py',
   'PYMODULE'),
  ('xml.dom.xmlbuilder',
   '/Library/Developer/CommandLineTools/Library/Frameworks/Python3.framework/Versions/3.8/lib/python3.8/xml/dom/xmlbuilder.py',
   'PYMODULE'),
  ('xml.dom.minicompat',
   '/Library/Developer/CommandLineTools/Library/Frameworks/Python3.framework/Versions/3.8/lib/python3.8/xml/dom/minicompat.py',
   'PYMODULE'),
  ('xml.dom.domreg',
   '/Library/Developer/CommandLineTools/Library/Frameworks/Python3.framework/Versions/3.8/lib/python3.8/xml/dom/domreg.py',
   'PYMODULE'),
  ('xml.dom',
   '/Library/Developer/CommandLineTools/Library/Frameworks/Python3.framework/Versions/3.8/lib/python3.8/xml/dom/__init__.py',
   'PYMODULE'),
  ('numbers',
   '/Library/Developer/CommandLineTools/Library/Frameworks/Python3.framework/Versions/3.8/lib/python3.8/numbers.py',
   'PYMODULE'),
  ('__future__',
   '/Library/Developer/CommandLineTools/Library/Frameworks/Python3.framework/Versions/3.8/lib/python3.8/__future__.py',
   'PYMODULE'),
  ('xml.etree.ElementTree',
   '/Library/Developer/CommandLineTools/Library/Frameworks/Python3.framework/Versions/3.8/lib/python3.8/xml/etree/ElementTree.py',
   'PYMODULE'),
  ('xml.etree.cElementTree',
   '/Library/Developer/CommandLineTools/Library/Frameworks/Python3.framework/Versions/3.8/lib/python3.8/xml/etree/cElementTree.py',
   'PYMODULE'),
  ('xml.etree.ElementInclude',
   '/Library/Developer/CommandLineTools/Library/Frameworks/Python3.framework/Versions/3.8/lib/python3.8/xml/etree/ElementInclude.py',
   'PYMODULE'),
  ('xml.etree.ElementPath',
   '/Library/Developer/CommandLineTools/Library/Frameworks/Python3.framework/Versions/3.8/lib/python3.8/xml/etree/ElementPath.py',
   'PYMODULE'),
  ('xml.etree',
   '/Library/Developer/CommandLineTools/Library/Frameworks/Python3.framework/Versions/3.8/lib/python3.8/xml/etree/__init__.py',
   'PYMODULE'),
  ('csv',
   '/Library/Developer/CommandLineTools/Library/Frameworks/Python3.framework/Versions/3.8/lib/python3.8/csv.py',
   'PYMODULE'),
  ('json',
   '/Library/Developer/CommandLineTools/Library/Frameworks/Python3.framework/Versions/3.8/lib/python3.8/json/__init__.py',
   'PYMODULE'),
  ('json.encoder',
   '/Library/Developer/CommandLineTools/Library/Frameworks/Python3.framework/Versions/3.8/lib/python3.8/json/encoder.py',
   'PYMODULE'),
  ('json.decoder',
   '/Library/Developer/CommandLineTools/Library/Frameworks/Python3.framework/Versions/3.8/lib/python3.8/json/decoder.py',
   'PYMODULE'),
  ('json.scanner',
   '/Library/Developer/CommandLineTools/Library/Frameworks/Python3.framework/Versions/3.8/lib/python3.8/json/scanner.py',
   'PYMODULE')])
